Discriminant Analysis -- A Classification by Maximizing Class Separation
…
QDA better bet if training set is large so variance of classifier not a major concern.

Building our first linear and quadratic discriminant models

We have a tibble containing 178 cases and 14 variables of measurements made on various wine bottles.

#install.packages("mlr")
library(mlr)
library(tidyverse)
#install.packages("HDclassif")
data(wine, package = "HDclassif")
wineTib <- as_tibble(wine)
wineTib

# A tibble: 178 x 14
   class    V1    V2    V3    V4    V5    V6    V7    V8    V9   V10
   <int> <dbl> <dbl> <dbl> <dbl> <int> <dbl> <dbl> <dbl> <dbl> <dbl>
 1     1  14.2  1.71  2.43  15.6   127  2.8   3.06 0.28   2.29  5.64
 2     1  13.2  1.78  2.14  11.2   100  2.65  2.76 0.26   1.28  4.38
 3     1  13.2  2.36  2.67  18.6   101  2.8   3.24 0.3    2.81  5.68
 4     1  14.4  1.95  2.5   16.8   113  3.85  3.49 0.24   2.18  7.8 
 5     1  13.2  2.59  2.87  21     118  2.8   2.69 0.39   1.82  4.32
 6     1  14.2  1.76  2.45  15.2   112  3.27  3.39 0.34   1.97  6.75
 7     1  14.4  1.87  2.45  14.6    96  2.5   2.52 0.3    1.98  5.25
 8     1  14.1  2.15  2.61  17.6   121  2.6   2.51 0.31   1.25  5.05
 9     1  14.8  1.64  2.17  14      97  2.8   2.98 0.290  1.98  5.2 
10     1  13.9  1.35  2.27  16      98  2.98  3.15 0.22   1.85  7.22
# ... with 168 more rows, and 3 more variables: V11 <dbl>, V12 <dbl>,
#   V13 <int>

names(wineTib) <- c("Class", "Alco", "Malic", "Ash", "Alk", "Mag",
                    "Phe", "Flav", "Non_flav", "Proan", "Col", "Hue",
                    "OD", "Prol")
wineTib$Class <- as.factor(wineTib$Class)
wineTib

# A tibble: 178 x 14
   Class  Alco Malic   Ash   Alk   Mag   Phe  Flav Non_flav Proan
   <fct> <dbl> <dbl> <dbl> <dbl> <int> <dbl> <dbl>    <dbl> <dbl>
 1 1      14.2  1.71  2.43  15.6   127  2.8   3.06    0.28   2.29
 2 1      13.2  1.78  2.14  11.2   100  2.65  2.76    0.26   1.28
 3 1      13.2  2.36  2.67  18.6   101  2.8   3.24    0.3    2.81
 4 1      14.4  1.95  2.5   16.8   113  3.85  3.49    0.24   2.18
 5 1      13.2  2.59  2.87  21     118  2.8   2.69    0.39   1.82
 6 1      14.2  1.76  2.45  15.2   112  3.27  3.39    0.34   1.97
 7 1      14.4  1.87  2.45  14.6    96  2.5   2.52    0.3    1.98
 8 1      14.1  2.15  2.61  17.6   121  2.6   2.51    0.31   1.25
 9 1      14.8  1.64  2.17  14      97  2.8   2.98    0.290  1.98
10 1      13.9  1.35  2.27  16      98  2.98  3.15    0.22   1.85
# ... with 168 more rows, and 4 more variables: Col <dbl>, Hue <dbl>,
#   OD <dbl>, Prol <int>
…
